^C:\U_JHJ\01_TEST\T_PROJECT2\GIT_TEST\GIT_TEST\GIT_TEST.CPP
C:\U_JHJ\01_TEST\T_PROJECT2\GIT_TEST\GIT_TEST\DEBUG\VC142.PDB
C:\U_JHJ\01_TEST\T_PROJECT2\GIT_TEST\GIT_TEST\DEBUG\VC142.IDB
C:\U_JHJ\01_TEST\T_PROJECT2\GIT_TEST\GIT_TEST\DEBUG\GIT_TEST.OBJ
