^C:\U_JHJ\01_TEST\T_PROJECT2\GIT_TEST\GIT_TEST\DEBUG\GIT_TEST.OBJ
C:\U_JHJ\01_TEST\T_PROJECT2\GIT_TEST\DEBUG\GIT_TEST.EXE
C:\U_JHJ\01_TEST\T_PROJECT2\GIT_TEST\DEBUG\GIT_TEST.ILK
C:\U_JHJ\01_TEST\T_PROJECT2\GIT_TEST\DEBUG\GIT_TEST.PDB
